<?xml version="1.0" encoding="UTF-8" standalone="no"?>
<!-- Created with Inkscape (http://www.inkscape.org/) -->

<svg
   xmlns:dc="http://purl.org/dc/elements/1.1/"
   xmlns:cc="http://creativecommons.org/ns#"
   xmlns:rdf="http://www.w3.org/1999/02/22-rdf-syntax-ns#"
   xmlns:svg="http://www.w3.org/2000/svg"
   xmlns="http://www.w3.org/2000/svg"
   xmlns:sodipodi="http://sodipodi.sourceforge.net/DTD/sodipodi-0.dtd"
   xmlns:inkscape="http://www.inkscape.org/namespaces/inkscape"
   width="590mm"
   height="880mm"
   id="svg2985"
   version="1.1"
   inkscape:version="0.91 r13725"
   sodipodi:docname="rules.svg"
   inkscape:export-filename="/home/scvalex/tmp/proset/rules.png"
   inkscape:export-xdpi="90.019318"
   inkscape:export-ydpi="90.019318">
  <defs
     id="defs2987" />
  <sodipodi:namedview
     id="base"
     pagecolor="#ffffff"
     bordercolor="#666666"
     borderopacity="1.0"
     inkscape:pageopacity="0.0"
     inkscape:pageshadow="2"
     inkscape:zoom="0.22353284"
     inkscape:cx="1811.0625"
     inkscape:cy="1559.0551"
     inkscape:document-units="px"
     inkscape:current-layer="g3265"
     showgrid="false"
     units="mm"
     inkscape:window-width="1600"
     inkscape:window-height="882"
     inkscape:window-x="0"
     inkscape:window-y="18"
     inkscape:window-maximized="0" />
  <metadata
     id="metadata2990">
    <rdf:RDF>
      <cc:Work
         rdf:about="">
        <dc:format>image/svg+xml</dc:format>
        <dc:type
           rdf:resource="http://purl.org/dc/dcmitype/StillImage" />
        <dc:title></dc:title>
      </cc:Work>
    </rdf:RDF>
  </metadata>
  <g
     inkscape:label="Layer 1"
     inkscape:groupmode="layer"
     id="layer1"
     transform="translate(0,2065.7489)">
    <g
       id="g3265"
       transform="translate(1.3213847e-5,100.3938)">
      <g
         id="g3285"
         transform="translate(7.7855868e-5,-3.383651e-4)">
        <text
           xml:space="preserve"
           style="font-style:normal;font-variant:normal;font-weight:normal;font-stretch:normal;font-size:730.15814209px;line-height:125%;font-family:'URW Bookman L';-inkscape-font-specification:'URW Bookman L';letter-spacing:0px;word-spacing:0px;fill:#000000;fill-opacity:1;stroke:none"
           x="268.07922"
           y="-1344.926"
           id="text2997"
           sodipodi:linespacing="125%"><tspan
             sodipodi:role="line"
             id="tspan2999"
             x="268.07922"
             y="-1344.926">PRO</tspan></text>
        <g
           id="g3248"
           transform="matrix(0.87968036,0,0,0.87968036,125.76717,-99.927409)">
          <text
             sodipodi:linespacing="125%"
             id="text3001"
             y="-651.4024"
             x="96.624886"
             style="font-style:normal;font-variant:normal;font-weight:normal;font-stretch:normal;font-size:144px;line-height:125%;font-family:'URW Bookman L';-inkscape-font-specification:'URW Bookman L';text-align:justify;letter-spacing:0px;word-spacing:0px;writing-mode:lr-tb;text-anchor:start;fill:#000000;fill-opacity:1;stroke:none"
             xml:space="preserve"><tspan
               id="tspan3021"
               style="font-style:normal;font-variant:normal;font-weight:normal;font-stretch:normal;font-size:144px;line-height:125%;font-family:'URW Bookman L';-inkscape-font-specification:'URW Bookman L';text-align:justify;writing-mode:lr-tb;text-anchor:start"
               y="-651.4024"
               x="96.624886"
               sodipodi:role="line">Match sets by selecting</tspan><tspan
               style="font-style:normal;font-variant:normal;font-weight:normal;font-stretch:normal;font-size:144px;line-height:125%;font-family:'URW Bookman L';-inkscape-font-specification:'URW Bookman L';text-align:justify;writing-mode:lr-tb;text-anchor:start"
               id="tspan3007"
               y="-471.4024"
               x="96.624886"
               sodipodi:role="line">a group of cards that has</tspan><tspan
               style="font-style:normal;font-variant:normal;font-weight:normal;font-stretch:normal;font-size:144px;line-height:125%;font-family:'URW Bookman L';-inkscape-font-specification:'URW Bookman L';text-align:justify;writing-mode:lr-tb;text-anchor:start"
               id="tspan3011"
               y="-291.4024"
               x="96.624886"
               sodipodi:role="line">an even number of each</tspan><tspan
               id="tspan3035"
               style="font-style:normal;font-variant:normal;font-weight:normal;font-stretch:normal;font-size:144px;line-height:125%;font-family:'URW Bookman L';-inkscape-font-specification:'URW Bookman L';text-align:justify;writing-mode:lr-tb;text-anchor:start"
               y="-111.4024"
               x="96.624886"
               sodipodi:role="line">color dot.</tspan></text>
          <text
             sodipodi:linespacing="125%"
             id="text3039"
             y="-1066.2621"
             x="97.488884"
             style="font-style:normal;font-variant:normal;font-weight:normal;font-stretch:normal;font-size:144px;line-height:125%;font-family:'URW Bookman L';-inkscape-font-specification:'URW Bookman L';text-align:justify;letter-spacing:0px;word-spacing:0px;writing-mode:lr-tb;text-anchor:start;fill:#000000;fill-opacity:1;stroke:none"
             xml:space="preserve"><tspan
               y="-1066.2621"
               x="97.488884"
               id="tspan3041"
               sodipodi:role="line">Draw 7 cards and place</tspan><tspan
               id="tspan3043"
               y="-886.26208"
               x="97.488884"
               sodipodi:role="line">them face-up.</tspan></text>
          <text
             sodipodi:linespacing="125%"
             id="text3045"
             y="92.497246"
             x="105.69688"
             style="font-style:normal;font-variant:normal;font-weight:normal;font-stretch:normal;font-size:144px;line-height:125%;font-family:'URW Bookman L';-inkscape-font-specification:'URW Bookman L';text-align:justify;letter-spacing:0px;word-spacing:0px;writing-mode:lr-tb;text-anchor:start;fill:#000000;fill-opacity:1;stroke:none"
             xml:space="preserve"><tspan
               id="tspan3107"
               y="92.497246"
               x="105.69688"
               sodipodi:role="line">The game ends when there</tspan><tspan
               id="tspan3111"
               y="272.49725"
               x="105.69688"
               sodipodi:role="line">are less than 7 cards in</tspan><tspan
               id="tspan3113"
               y="452.49725"
               x="105.69688"
               sodipodi:role="line">the deck.</tspan></text>
          <text
             sodipodi:linespacing="125%"
             id="text3115"
             y="656.39691"
             x="105.69688"
             style="font-style:normal;font-variant:normal;font-weight:normal;font-stretch:normal;font-size:144px;line-height:125%;font-family:'URW Bookman L';-inkscape-font-specification:'URW Bookman L';text-align:justify;letter-spacing:0px;word-spacing:0px;writing-mode:lr-tb;text-anchor:start;fill:#000000;fill-opacity:1;stroke:none"
             xml:space="preserve"><tspan
               y="656.39691"
               x="105.69688"
               id="tspan3117"
               sodipodi:role="line">The player with the largest</tspan><tspan
               id="tspan3119"
               y="836.39691"
               x="105.69688"
               sodipodi:role="line">set wins.</tspan></text>
        </g>
      </g>
    </g>
  </g>
</svg>
